\relax 
\providecommand\hyper@newdestlabel[2]{}
\providecommand\HyperFirstAtBeginDocument{\AtBeginDocument}
\HyperFirstAtBeginDocument{\ifx\hyper@anchor\@undefined
\global\let\oldcontentsline\contentsline
\gdef\contentsline#1#2#3#4{\oldcontentsline{#1}{#2}{#3}}
\global\let\oldnewlabel\newlabel
\gdef\newlabel#1#2{\newlabelxx{#1}#2}
\gdef\newlabelxx#1#2#3#4#5#6{\oldnewlabel{#1}{{#2}{#3}}}
\AtEndDocument{\ifx\hyper@anchor\@undefined
\let\contentsline\oldcontentsline
\let\newlabel\oldnewlabel
\fi}
\fi}
\global\let\hyper@last\relax 
\gdef\HyperFirstAtBeginDocument#1{#1}
\providecommand\HyField@AuxAddToFields[1]{}
\providecommand\HyField@AuxAddToCoFields[2]{}
\@writefile{toc}{\contentsline {section}{\numberline {1}\hskip -1em.\nobreakspace  {}Introduction}{1}{section.1}}
\@writefile{toc}{\contentsline {section}{\numberline {2}\hskip -1em.\nobreakspace  {}Background}{1}{section.2}}
\@writefile{toc}{\contentsline {subsection}{\numberline {2.1}\hskip -1em.\nobreakspace  {}Previous Work}{1}{subsection.2.1}}
\citation{suzuki1985topological}
\citation{kaewtrakulpong2002improved}
\citation{valentintremaille2015}
\citation{calebpineur2015}
\@writefile{lof}{\contentsline {figure}{\numberline {1}{\ignorespaces Super Hexagon. The player, the small triangle near the center of the screen, must avoid the impending walls.}}{2}{figure.1}}
\newlabel{superhexagon}{{1}{2}{Super Hexagon. The player, the small triangle near the center of the screen, must avoid the impending walls}{figure.1}{}}
\@writefile{toc}{\contentsline {subsection}{\numberline {2.2}\hskip -1em.\nobreakspace  {}Our Contributions}{2}{subsection.2.2}}
\@writefile{toc}{\contentsline {section}{\numberline {3}\hskip -1em.\nobreakspace  {}Solution}{2}{section.3}}
\@writefile{toc}{\contentsline {subsection}{\numberline {3.1}\hskip -1em.\nobreakspace  {}Summary}{2}{subsection.3.1}}
\citation{fischler1981random}
\citation{suzuki1985topological}
\citation{kaewtrakulpong2002improved}
\@writefile{lof}{\contentsline {figure}{\numberline {2}{\ignorespaces Pipeline for playing Super Hexagon.}}{3}{figure.2}}
\newlabel{pipeline}{{2}{3}{Pipeline for playing Super Hexagon}{figure.2}{}}
\@writefile{toc}{\contentsline {subsection}{\numberline {3.2}\hskip -1em.\nobreakspace  {}Isolating the Phone and Correcting for Perspective}{3}{subsection.3.2}}
\@writefile{lof}{\contentsline {figure}{\numberline {3}{\ignorespaces Process of phone screen isolation. (a) is the original image, with phone contour shown in red, and ground truth screen quadrilateral shown in green. (b) is the thresholded image. (c) Is the recovered screen image.}}{4}{figure.3}}
\newlabel{isolated}{{3}{4}{Process of phone screen isolation. (a) is the original image, with phone contour shown in red, and ground truth screen quadrilateral shown in green. (b) is the thresholded image. (c) Is the recovered screen image}{figure.3}{}}
\@writefile{toc}{\contentsline {subsection}{\numberline {3.3}\hskip -1em.\nobreakspace  {}Extracting Features}{4}{subsection.3.3}}
\@writefile{toc}{\contentsline {subsection}{\numberline {3.4}\hskip -1em.\nobreakspace  {}Game AI}{4}{subsection.3.4}}
\@writefile{toc}{\contentsline {section}{\numberline {4}\hskip -1em.\nobreakspace  {}Experiments}{4}{section.4}}
\@writefile{toc}{\contentsline {subsection}{\numberline {4.1}\hskip -1em.\nobreakspace  {}Isolating the Phone}{4}{subsection.4.1}}
\@writefile{lof}{\contentsline {figure}{\numberline {4}{\ignorespaces Experimental setup. The phone, right, is filmed by the webcam, which is connected to the laptop. In this test, the laptop is drawing the extracted bounding box on the raw webcam footage.}}{5}{figure.4}}
\newlabel{experimental_setup}{{4}{5}{Experimental setup. The phone, right, is filmed by the webcam, which is connected to the laptop. In this test, the laptop is drawing the extracted bounding box on the raw webcam footage}{figure.4}{}}
\@writefile{lof}{\contentsline {figure}{\numberline {5}{\ignorespaces Screenshots from the four videos used to test bounding box extraction. Referred to by the numbers 1-4, clockwise from top right, in the tables below.}}{5}{figure.5}}
\newlabel{bbox_tests}{{5}{5}{Screenshots from the four videos used to test bounding box extraction. Referred to by the numbers 1-4, clockwise from top right, in the tables below}{figure.5}{}}
\@writefile{lof}{\contentsline {figure}{\numberline {8}{\ignorespaces The numerical scores used to generate the graphs in Figure \ref  {thresholding_graphs}, with standard deviations.}}{5}{figure.8}}
\newlabel{thresholding_scores}{{8}{5}{The numerical scores used to generate the graphs in Figure \ref {thresholding_graphs}, with standard deviations}{figure.8}{}}
\@writefile{toc}{\contentsline {subsection}{\numberline {4.2}\hskip -1em.\nobreakspace  {}Extracting Features}{5}{subsection.4.2}}
\@writefile{lof}{\contentsline {figure}{\numberline {6}{\ignorespaces Top to bottom: Jaccard Index, corner distance, and corner velocity for the thresholding method in each video file and (a) a buffer size of 1 frame, (b) a buffer size of 35 frames, and (c) a buffer size of 50 frames.}}{6}{figure.6}}
\newlabel{thresholding_graphs}{{6}{6}{Top to bottom: Jaccard Index, corner distance, and corner velocity for the thresholding method in each video file and (a) a buffer size of 1 frame, (b) a buffer size of 35 frames, and (c) a buffer size of 50 frames}{figure.6}{}}
\@writefile{lof}{\contentsline {figure}{\numberline {7}{\ignorespaces Top to bottom: Jaccard Index, corner distance, and corner velocity for the background subtraction method in each video file and (a) a buffer size of 1 frame, (b) a buffer size of 35 frames, and (c) a buffer size of 50 frames.}}{6}{figure.7}}
\newlabel{bg_subtractor_graphs}{{7}{6}{Top to bottom: Jaccard Index, corner distance, and corner velocity for the background subtraction method in each video file and (a) a buffer size of 1 frame, (b) a buffer size of 35 frames, and (c) a buffer size of 50 frames}{figure.7}{}}
\@writefile{toc}{\contentsline {subsection}{\numberline {4.3}\hskip -1em.\nobreakspace  {}Game AI}{6}{subsection.4.3}}
\@writefile{lof}{\contentsline {figure}{\numberline {9}{\ignorespaces The numerical scores used to generate the graphs in Figure \ref  {bg_subtractor_graphs}, with standard deviations.}}{7}{figure.9}}
\newlabel{bgsub_scores}{{9}{7}{The numerical scores used to generate the graphs in Figure \ref {bg_subtractor_graphs}, with standard deviations}{figure.9}{}}
\@writefile{lof}{\contentsline {figure}{\numberline {10}{\ignorespaces Player character localization accuracy.}}{7}{figure.10}}
\newlabel{feature_nums}{{10}{7}{Player character localization accuracy}{figure.10}{}}
\@writefile{lof}{\contentsline {figure}{\numberline {11}{\ignorespaces Experimental setup for the integration tests. The arduino and bluetooth module at bottom left were used to transmit controls to the phone.}}{7}{figure.11}}
\newlabel{final_setup}{{11}{7}{Experimental setup for the integration tests. The arduino and bluetooth module at bottom left were used to transmit controls to the phone}{figure.11}{}}
\@writefile{lof}{\contentsline {figure}{\numberline {12}{\ignorespaces Player character localization accuracy.}}{7}{figure.12}}
\newlabel{ai_nums}{{12}{7}{Player character localization accuracy}{figure.12}{}}
\@writefile{toc}{\contentsline {section}{\numberline {5}\hskip -1em.\nobreakspace  {}Conclusions}{7}{section.5}}
\bibstyle{ieee}
\bibdata{refs}
\bibcite{fischler1981random}{1}
\bibcite{kaewtrakulpong2002improved}{2}
\bibcite{calebpineur2015}{3}
\bibcite{suzuki1985topological}{4}
\bibcite{valentintremaille2015}{5}
