This is BibTeX, Version 0.99d (TeX Live 2013)
Capacity: max_strings=35307, hash_size=35307, hash_prime=30011
The top-level auxiliary file: report.aux
The style file: ieee.bst
Database file #1: refs.bib
Warning--entry type for "valentintremaille2015" isn't style-file defined
--line 51 of file refs.bib
Warning--entry type for "calebpineur2015" isn't style-file defined
--line 58 of file refs.bib
You've used 5 entries,
            2120 wiz_defined-function locations,
            528 strings with 4421 characters,
and the built_in function-call counts, 1528 in all, are:
= -- 154
> -- 53
< -- 1
+ -- 22
- -- 16
* -- 89
:= -- 246
add.period$ -- 14
call.type$ -- 5
change.case$ -- 22
chr.to.int$ -- 0
cite$ -- 5
duplicate$ -- 60
empty$ -- 138
format.name$ -- 16
if$ -- 330
int.to.chr$ -- 0
int.to.str$ -- 5
missing$ -- 3
newline$ -- 26
num.names$ -- 10
pop$ -- 31
preamble$ -- 1
purify$ -- 17
quote$ -- 0
skip$ -- 52
stack$ -- 0
substring$ -- 102
swap$ -- 14
text.length$ -- 1
text.prefix$ -- 0
top$ -- 0
type$ -- 20
warning$ -- 0
while$ -- 17
width$ -- 6
write$ -- 52
(There were 2 warnings)
